<svg xmlns="http://www.w3.org/2000/svg" width="12.285" height="13.183" viewBox="0 0 12.285 13.183">
  <g id="noun-delete-1534865" transform="translate(-128.24 -41.999)">
    <path id="Tracé_26" data-name="Tracé 26" d="M136.559,43.75V42H132.02V43.75h-3.78v.945h1.131l.806,10.488h8.257l.806-10.488h1.286V43.75Zm-3.594-.821h2.665v.806h-2.665Zm-.883,10.007-.372-6.863.945-.046.372,6.863Zm2.68-.046h-.945V46.042h.945Zm1.735.031-.945-.046.372-6.863.945.046Z" fill="#fff"/>
  </g>
</svg>
