<svg width="24" height="19" viewBox="0 0 24 19" fill="none" xmlns="http://www.w3.org/2000/svg">
<path d="M19.0345 10.3452C20.0223 10.3452 20.9695 9.95281 21.6678 9.25436C22.3663 8.55607 22.7586 7.60879 22.7586 6.62103C22.7586 5.63327 22.3663 4.686 21.6678 3.9877C20.9695 3.28922 20.0223 2.8969 19.0345 2.8969C18.0467 2.8969 17.0995 3.28926 16.4012 3.9877C15.7027 4.686 15.3104 5.63327 15.3104 6.62103C15.3104 7.60879 15.7027 8.55607 16.4012 9.25436C17.0995 9.95285 18.0467 10.3452 19.0345 10.3452ZM17.3793 6.20724H18.6207V4.96586H19.4483V6.20724H20.6897V7.03483H19.4483V8.27621H18.6207V7.03483H17.3793V6.20724Z" fill="#ffffff"/>
<path d="M21.7698 10.2582C20.591 11.1458 19.055 11.407 17.6488 10.9586C16.2429 10.5103 15.1415 9.4082 14.6941 8.00202C14.2467 6.59569 14.509 5.05983 15.3974 3.88144C14.8042 3.67602 14.1933 3.52491 13.5726 3.43052L13.9037 1.44431C13.9637 1.0815 13.8601 0.710926 13.6203 0.432195C13.3807 0.15344 13.0299 -0.00487469 12.6623 0.000114473H11.3215C10.9541 -0.00487327 10.6031 0.15344 10.3635 0.432195C10.1238 0.710949 10.0201 1.0815 10.0801 1.44431L10.4111 3.43052C7.97178 3.80958 5.74836 5.04875 4.14275 6.92392C2.5369 8.7989 1.65465 11.1866 1.65536 13.6553V14.4829H22.345C22.4163 13.0512 22.2213 11.6187 21.7698 10.2582ZM7.86208 6.96853C6.90241 7.56278 6.08183 8.3566 5.45636 9.29631C4.83085 10.236 4.41502 11.2993 4.23735 12.414C4.20447 12.6163 4.02842 12.7642 3.82356 12.7617H3.75724C3.53261 12.7256 3.3791 12.5149 3.41383 12.2899C3.61278 11.0544 4.07628 9.87638 4.77268 8.83655C5.46894 7.79673 6.38165 6.91963 7.44829 6.26513C7.54158 6.1868 7.66442 6.15355 7.7845 6.17424C7.90439 6.19474 8.00931 6.26734 8.07101 6.37227C8.13271 6.4772 8.14509 6.60392 8.10482 6.71882C8.06455 6.83372 7.97587 6.92493 7.86208 6.96853Z" fill="#ffffff"/>
<path d="M23.5862 15.3107H0.413794C0.185286 15.3107 1.38224e-06 15.496 1.38224e-06 15.7245V16.759C-0.000368052 16.9019 0.0733395 17.035 0.194522 17.1107L1.84969 18.1452C1.91546 18.186 1.99157 18.2074 2.06897 18.2072H21.931C22.0084 18.2074 22.0845 18.186 22.1503 18.1452L23.8055 17.1107C23.9267 17.035 24.0004 16.9019 24 16.759V15.7245C24 15.6148 23.9564 15.5095 23.8788 15.4319C23.8012 15.3543 23.6959 15.3107 23.5862 15.3107Z" fill="#ffffff"/>
</svg>
